…
plane_delays <- flights %>%
  select(tailnum, arr_delay) %>%
  group_by(tailnum) %>%
  summarise(avg_arr_delay = sum(arr_delay, na.rm = TRUE) / length(arr_delay))
```

    ## `summarise()` ungrouping output (override with `.groups` argument)

``` r
plane_delays
```

    ## # A tibble: 4,044 x 2
    ##    tailnum avg_arr_delay
    ##    <chr>           <dbl>
    ##  1 D942DN         31.5  
    ##  2 N0EGMQ          9.47 
    ##  3 N10156         12.1  
    ##  4 N102UW          2.94 
    ##  5 N103US         -6.93 
    ##  6 N104UW          1.77 
    ##  7 N10575         19.3  
    ##  8 N105UW         -0.267
    ##  9 N107US         -5.73 
    ## 10 N108UW         -1.25 
    ## # … with 4,034 more rows
…
age_avgDelay <- plane_age %>%
  select(age, avg_arr_delay) %>%
  group_by(age) %>%
  na.omit() %>%
  summarise(avg_arr_delay_by_age = sum(avg_arr_delay) / length(avg_arr_delay))
```

    ## `summarise()` ungrouping output (override with `.groups` argument)

``` r
age_avgDelay
```

    ## # A tibble: 46 x 2
    ##      age avg_arr_delay_by_age
    ##    <dbl>                <dbl>
    ##  1     0                2.52 
    ##  2     1                0.720
    ##  3     2                4.18 
    ##  4     3                3.03 
    ##  5     4                5.82 
    ##  6     5                4.57 
    ##  7     6                7.72 
    ##  8     7                7.52 
    ##  9     8               10.6  
    ## 10     9               12.1  
    ## # … with 36 more rows
…
